\relax 
\providecommand\hyper@newdestlabel[2]{}
\providecommand*\new@tpo@label[2]{}
\providecommand\HyperFirstAtBeginDocument{\AtBeginDocument}
\HyperFirstAtBeginDocument{\ifx\hyper@anchor\@undefined
\global\let\oldcontentsline\contentsline
\gdef\contentsline#1#2#3#4{\oldcontentsline{#1}{#2}{#3}}
\global\let\oldnewlabel\newlabel
\gdef\newlabel#1#2{\newlabelxx{#1}#2}
\gdef\newlabelxx#1#2#3#4#5#6{\oldnewlabel{#1}{{#2}{#3}}}
\AtEndDocument{\ifx\hyper@anchor\@undefined
\let\contentsline\oldcontentsline
\let\newlabel\oldnewlabel
\fi}
\fi}
\global\let\hyper@last\relax 
\gdef\HyperFirstAtBeginDocument#1{#1}
\providecommand\HyField@AuxAddToFields[1]{}
\providecommand\HyField@AuxAddToCoFields[2]{}
\providecommand\BKM@entry[2]{}
\@nameuse{bbl@beforestart}
\catcode `"\active 
\babel@aux{polish}{}
\BKM@entry{id=1,dest={73656374696F6E2E31},srcline={54}}{5770726F7761647A656E6965}
\BKM@entry{id=2,dest={73756273656374696F6E2E312E31},srcline={63}}{42617A612064616E796368}
\BKM@entry{id=3,dest={73756273656374696F6E2E312E32},srcline={85}}{4B6F64}
\@writefile{toc}{\contentsline {section}{\numberline {1}Wprowadzenie}{2}{section.1}\protected@file@percent }
\@writefile{toc}{\contentsline {subsection}{\numberline {1.1}Baza danych}{2}{subsection.1.1}\protected@file@percent }
\BKM@entry{id=4,dest={73656374696F6E2E32},srcline={99}}{416E616C697A6120737A657265675C3336337720637A61736F77796368}
\@writefile{toc}{\contentsline {subsection}{\numberline {1.2}Kod}{3}{subsection.1.2}\protected@file@percent }
\@writefile{toc}{\contentsline {section}{\numberline {2}Analiza szeregów czasowych}{3}{section.2}\protected@file@percent }
\BKM@entry{id=5,dest={73756273656374696F6E2E322E31},srcline={123}}{57796B6F727A797374616E6965206D6F64656C75204152494D41}
\@writefile{toc}{\contentsline {subsection}{\numberline {2.1}Wykorzystanie modelu ARIMA}{4}{subsection.2.1}\protected@file@percent }
\BKM@entry{id=6,dest={73756273656374696F6E2E322E32},srcline={146}}{5369656369204C53544D}
\@writefile{toc}{\contentsline {subsection}{\numberline {2.2}Sieci LSTM}{11}{subsection.2.2}\protected@file@percent }
\BKM@entry{id=7,dest={73656374696F6E2E33},srcline={234}}{416E616C697A61207A2077796B6F727A797374616E69656D205349}
\@writefile{toc}{\contentsline {section}{\numberline {3}Analiza z wykorzystaniem SI}{16}{section.3}\protected@file@percent }
\BKM@entry{id=8,dest={73656374696F6E2E34},srcline={272}}{506F6473756D6F77616E6965}
\@writefile{toc}{\contentsline {section}{\numberline {4}Podsumowanie}{17}{section.4}\protected@file@percent }
